[
  {
    "id": 0,
    "component": "водород",
    "location": "Главный цех",
    "id_comp": 0,
    "id_location": 0,
    "val": 0,
    "pdc": 20,
    "dtime": "0",
    "total": 0
  },
  {
    "id": 0,
    "component": "водород",
    "location": "Доп. цех",
    "id_comp": 0,
    "id_location": 0,
    "val": 0,
    "pdc": 20,
    "dtime": "0",
    "total": 0
  },
  {
    "id": 6,
    "component": "водород",
    "location": "цех №1",
    "id_comp": 2,
    "id_location": 1,
    "val": 15,
    "pdc": 20,
    "dtime": "2019-05-09 11:37:52",
    "total": 0
  },
  {
    "id": 7,
    "component": "водород",
    "location": "цех №2",
    "id_comp": 2,
    "id_location": 2,
    "val": 12,
    "pdc": 20,
    "dtime": "2019-05-09 11:37:52",
    "total": 0
  },
  {
    "id": 8,
    "component": "водород",
    "location": "цех №3",
    "id_comp": 2,
    "id_location": 3,
    "val": 30,
    "pdc": 20,
    "dtime": "2019-05-09 11:37:52",
    "total": 0
  },
  {
    "id": 9,
    "component": "водород",
    "location": "цех №4",
    "id_comp": 2,
    "id_location": 4,
    "val": 33,
    "pdc": 20,
    "dtime": "2019-05-09 11:37:52",
    "total": 0
  },
  {
    "id": 30,
    "component": "водород",
    "location": "цех №5",
    "id_comp": 2,
    "id_location": 5,
    "val": 37,
    "pdc": 20,
    "dtime": "2019-05-12 11:37:52",
    "total": 79
  },
  {
    "id": 0,
    "component": "метан",
    "location": "Главный цех",
    "id_comp": 0,
    "id_location": 0,
    "val": 0,
    "pdc": 40,
    "dtime": "0",
    "total": 0
  },
  {
    "id": 0,
    "component": "метан",
    "location": "Доп. цех",
    "id_comp": 0,
    "id_location": 0,
    "val": 0,
    "pdc": 40,
    "dtime": "0",
    "total": 0
  },
  {
    "id": 16,
    "component": "метан",
    "location": "цех №1",
    "id_comp": 4,
    "id_location": 1,
    "val": 18,
    "pdc": 40,
    "dtime": "2019-05-09 11:37:52",
    "total": 0
  },
  {
    "id": 17,
    "component": "метан",
    "location": "цех №2",
    "id_comp": 4,
    "id_location": 2,
    "val": 32,
    "pdc": 40,
    "dtime": "2019-05-09 11:37:52",
    "total": 0
  },
  {
    "id": 18,
    "component": "метан",
    "location": "цех №3",
    "id_comp": 4,
    "id_location": 3,
    "val": 27,
    "pdc": 40,
    "dtime": "2019-05-09 11:37:52",
    "total": 0
  },
  {
    "id": 20,
    "component": "метан",
    "location": "цех №4",
    "id_comp": 4,
    "id_location": 4,
    "val": 95,
    "pdc": 40,
    "dtime": "2019-05-10 11:37:52",
    "total": 95
  },
  {
    "id": 21,
    "component": "метан",
    "location": "цех №5",
    "id_comp": 4,
    "id_location": 5,
    "val": 44,
    "pdc": 40,
    "dtime": "2019-05-10 11:37:52",
    "total": 44
  },
  {
    "id": 24,
    "component": "Ртуть",
    "location": "Главный цех",
    "id_comp": 6,
    "id_location": 6,
    "val": 14,
    "pdc": 22,
    "dtime": "2019-05-12 12:30:55",
    "total": 14
  },
  {
    "id": 0,
    "component": "Ртуть",
    "location": "Доп. цех",
    "id_comp": 0,
    "id_location": 0,
    "val": 0,
    "pdc": 22,
    "dtime": "0",
    "total": 0
  },
  {
    "id": 0,
    "component": "Ртуть",
    "location": "цех №1",
    "id_comp": 0,
    "id_location": 0,
    "val": 0,
    "pdc": 22,
    "dtime": "0",
    "total": 0
  },
  {
    "id": 0,
    "component": "Ртуть",
    "location": "цех №2",
    "id_comp": 0,
    "id_location": 0,
    "val": 0,
    "pdc": 22,
    "dtime": "0",
    "total": 0
  },
  {
    "id": 0,
    "component": "Ртуть",
    "location": "цех №3",
    "id_comp": 0,
    "id_location": 0,
    "val": 0,
    "pdc": 22,
    "dtime": "0",
    "total": 0
  },
  {
    "id": 0,
    "component": "Ртуть",
    "location": "цех №4",
    "id_comp": 0,
    "id_location": 0,
    "val": 0,
    "pdc": 22,
    "dtime": "0",
    "total": 0
  },
  {
    "id": 0,
    "component": "Ртуть",
    "location": "цех №5",
    "id_comp": 0,
    "id_location": 0,
    "val": 0,
    "pdc": 22,
    "dtime": "0",
    "total": 0
  },
  {
    "id": 0,
    "component": "Свинец",
    "location": "Главный цех",
    "id_comp": 0,
    "id_location": 0,
    "val": 0,
    "pdc": 18,
    "dtime": "0",
    "total": 0
  },
  {
    "id": 0,
    "component": "Свинец",
    "location": "Доп. цех",
    "id_comp": 0,
    "id_location": 0,
    "val": 0,
    "pdc": 18,
    "dtime": "0",
    "total": 0
  },
  {
    "id": 0,
    "component": "Свинец",
    "location": "цех №1",
    "id_comp": 0,
    "id_location": 0,
    "val": 0,
    "pdc": 18,
    "dtime": "0",
    "total": 0
  },
  {
    "id": 0,
    "component": "Свинец",
    "location": "цех №2",
    "id_comp": 0,
    "id_location": 0,
    "val": 0,
    "pdc": 18,
    "dtime": "0",
    "total": 0
  },
  {
    "id": 0,
    "component": "Свинец",
    "location": "цех №3",
    "id_comp": 0,
    "id_location": 0,
    "val": 0,
    "pdc": 18,
    "dtime": "0",
    "total": 0
  },
  {
    "id": 0,
    "component": "Свинец",
    "location": "цех №4",
    "id_comp": 0,
    "id_location": 0,
    "val": 0,
    "pdc": 18,
    "dtime": "0",
    "total": 0
  },
  {
    "id": 0,
    "component": "Свинец",
    "location": "цех №5",
    "id_comp": 0,
    "id_location": 0,
    "val": 0,
    "pdc": 18,
    "dtime": "0",
    "total": 0
  },
  {
    "id": 0,
    "component": "СО",
    "location": "Главный цех",
    "id_comp": 0,
    "id_location": 0,
    "val": 0,
    "pdc": 30,
    "dtime": "0",
    "total": 0
  },
  {
    "id": 27,
    "component": "СО",
    "location": "Доп. цех",
    "id_comp": 3,
    "id_location": 7,
    "val": 33,
    "pdc": 30,
    "dtime": "2019-05-16 11:37:52",
    "total": 55
  },
  {
    "id": 11,
    "component": "СО",
    "location": "цех №1",
    "id_comp": 3,
    "id_location": 1,
    "val": 15,
    "pdc": 30,
    "dtime": "2019-05-09 11:37:52",
    "total": 0
  },
  {
    "id": 31,
    "component": "СО",
    "location": "цех №2",
    "id_comp": 3,
    "id_location": 2,
    "val": 48,
    "pdc": 30,
    "dtime": "2019-05-13 11:37:52",
    "total": 103
  },
  {
    "id": 32,
    "component": "СО",
    "location": "цех №3",
    "id_comp": 3,
    "id_location": 3,
    "val": 48,
    "pdc": 30,
    "dtime": "2019-05-13 11:37:52",
    "total": 48
  },
  {
    "id": 14,
    "component": "СО",
    "location": "цех №4",
    "id_comp": 3,
    "id_location": 4,
    "val": 41,
    "pdc": 30,
    "dtime": "2019-05-09 11:37:52",
    "total": 0
  },
  {
    "id": 15,
    "component": "СО",
    "location": "цех №5",
    "id_comp": 3,
    "id_location": 5,
    "val": 26,
    "pdc": 30,
    "dtime": "2019-05-09 11:37:52",
    "total": 0
  },
  {
    "id": 33,
    "component": "хлор",
    "location": "Главный цех",
    "id_comp": 1,
    "id_location": 6,
    "val": 19,
    "pdc": 10,
    "dtime": "2019-05-23 10:10:08",
    "total": 19
  },
  {
    "id": 0,
    "component": "хлор",
    "location": "Доп. цех",
    "id_comp": 0,
    "id_location": 0,
    "val": 0,
    "pdc": 10,
    "dtime": "0",
    "total": 0
  },
  {
    "id": 1,
    "component": "хлор",
    "location": "цех №1",
    "id_comp": 1,
    "id_location": 1,
    "val": 8,
    "pdc": 10,
    "dtime": "2019-05-09 11:37:52",
    "total": 0
  },
  {
    "id": 2,
    "component": "хлор",
    "location": "цех №2",
    "id_comp": 1,
    "id_location": 2,
    "val": 9,
    "pdc": 10,
    "dtime": "2019-05-09 11:37:52",
    "total": 0
  },
  {
    "id": 3,
    "component": "хлор",
    "location": "цех №3",
    "id_comp": 1,
    "id_location": 3,
    "val": 7,
    "pdc": 10,
    "dtime": "2019-05-09 11:37:52",
    "total": 0
  },
  {
    "id": 4,
    "component": "хлор",
    "location": "цех №4",
    "id_comp": 1,
    "id_location": 4,
    "val": 5,
    "pdc": 10,
    "dtime": "2019-05-09 11:37:52",
    "total": 0
  },
  {
    "id": 5,
    "component": "хлор",
    "location": "цех №5",
    "id_comp": 1,
    "id_location": 5,
    "val": 6,
    "pdc": 10,
    "dtime": "2019-05-09 11:37:52",
    "total": 0
  }
]