[
  {
    "components": [
      {
        "com_id": 2,
        "com_name": "водород",
        "com_pdc": 20,
        "com_main": 0
      },
      {
        "com_id": 4,
        "com_name": "метан",
        "com_pdc": 40,
        "com_main": 0
      },
      {
        "com_id": 3,
        "com_name": "СО",
        "com_pdc": 30,
        "com_main": 0
      },
      {
        "com_id": 1,
        "com_name": "хлор",
        "com_pdc": 10,
        "com_main": 1
      }
    ],
    "locations": [
      {
        "loc_id": 1,
        "loc_name": "цех №1"
      },
      {
        "loc_id": 2,
        "loc_name": "цех №2"
      },
      {
        "loc_id": 3,
        "loc_name": "цех №3"
      },
      {
        "loc_id": 4,
        "loc_name": "цех №4"
      },
      {
        "loc_id": 5,
        "loc_name": "цех №5"
      }
    ]
  }
]
